%YAML 1.1
%TAG !u! tag:unity3d.com,2011:
--- !u!1045 &1
EditorBuildSettings:
  m_ObjectHideFlags: 0
  serializedVersion: 2
  m_Scenes:
  - enabled: 1
    path: Assets/Scenes/MainMenu.unity
    guid: 52ec9ce582990433ba91d25f0b8a58c0
  - enabled: 1
    path: Assets/Scenes/Levels/Level1/Level1.unity
    guid: 41171dfb75d104e408c9563c2b91e030
  - enabled: 1
    path: Assets/Scenes/Levels/Level2/Level2.unity
    guid: f1f1e0e236a174f65bd47b4b7651d94b
  - enabled: 1
    path: Assets/Scenes/Levels/Level3/Level3.unity
    guid: 5a958d11acaa34c4a9dff40362183e28
  - enabled: 1
    path: Assets/Scenes/Levels/Level4/Level4.unity
    guid: 62bfb8808bad14fdfa68f0e514c68d0c
  - enabled: 1
    path: Assets/Scenes/Levels/Level5/Level5.unity
    guid: fc4839b9a8d054242a87070a88f6b35c
  - enabled: 1
    path: Assets/Scenes/SampleScene.unity
    guid: 99c9720ab356a0642a771bea13969a05
  - enabled: 1
    path: Assets/Scenes/Main.unity
    guid: b659a8a9d55907f4493c169b0aa2bc73
  m_configObjects: {}
