%YAML 1.1
%TAG !u! tag:unity3d.com,2011:
--- !u!78 &1
TagManager:
  serializedVersion: 2
  tags:
  - Placement
  - Enemy
  - Cubo
  layers:
  - Default
  - TransparentFX
  - Ignore Raycast
  - 
  - Water
  - UI
  - 
  - 
  - PlacementLayer
  - PlacementGhosts
  - Towers
  - GroundEnemies
  - FriendlyProjectiles
  - EnemyProjectiles
  - FlyingEnemies
  - GroundEnemyTargettingProjectiles
  - Floor
  - Weapon
  - 
  - 
  - 
  - 
  - 
  - 
  - 
  - 
  - 
  - 
  - 
  - 
  - 
  - 
  m_SortingLayers:
  - name: Default
    uniqueID: 0
    locked: 0
